<?xml version="1.0" encoding="UTF-8" standalone="no"?>
<!-- Created with Inkscape (http://www.inkscape.org/) -->

<svg
   width="142.11543mm"
   height="76.424232mm"
   viewBox="0 0 142.11543 76.424232"
   version="1.1"
   id="svg5"
   inkscape:version="1.2.2 (b0a8486541, 2022-12-01)"
   sodipodi:docname="gitBranches.svg"
   inkscape:export-filename="./gitBranches.png"
   inkscape:export-xdpi="96"
   inkscape:export-ydpi="96"
   xmlns:inkscape="http://www.inkscape.org/namespaces/inkscape"
   xmlns:sodipodi="http://sodipodi.sourceforge.net/DTD/sodipodi-0.dtd"
   xmlns="http://www.w3.org/2000/svg"
   xmlns:svg="http://www.w3.org/2000/svg">
  <sodipodi:namedview
     id="namedview7"
     pagecolor="#ffffff"
     bordercolor="#000000"
     borderopacity="0.25"
     inkscape:showpageshadow="2"
     inkscape:pageopacity="0.0"
     inkscape:pagecheckerboard="0"
     inkscape:deskcolor="#d1d1d1"
     inkscape:document-units="mm"
     showgrid="false"
     inkscape:zoom="1.4891395"
     inkscape:cx="251.15175"
     inkscape:cy="164.52454"
     inkscape:window-width="1920"
     inkscape:window-height="1048"
     inkscape:window-x="1920"
     inkscape:window-y="0"
     inkscape:window-maximized="1"
     inkscape:current-layer="layer1" />
  <defs
     id="defs2">
    <rect
       x="441.7395"
       y="382.02826"
       width="181.76672"
       height="55.713646"
       id="rect2061" />
    <rect
       x="441.7395"
       y="382.02826"
       width="181.76672"
       height="55.713646"
       id="rect2119" />
    <rect
       x="441.7395"
       y="382.02826"
       width="181.76672"
       height="55.713646"
       id="rect2125" />
    <rect
       x="441.7395"
       y="382.02826"
       width="181.76672"
       height="55.713646"
       id="rect2131" />
    <rect
       x="441.7395"
       y="382.02826"
       width="181.76672"
       height="55.713646"
       id="rect2137" />
    <rect
       x="441.7395"
       y="382.02826"
       width="181.76672"
       height="55.713646"
       id="rect2143" />
    <rect
       x="441.7395"
       y="382.02826"
       width="181.76672"
       height="55.713646"
       id="rect2231" />
    <rect
       x="441.7395"
       y="382.02826"
       width="181.76672"
       height="55.713646"
       id="rect2237" />
    <rect
       x="441.7395"
       y="382.02826"
       width="181.76672"
       height="55.713646"
       id="rect2309" />
  </defs>
  <g
     inkscape:label="Calque 1"
     inkscape:groupmode="layer"
     id="layer1"
     transform="translate(-15.901569,-88.814266)">
    <path
       style="fill:#201111;fill-opacity:1;stroke:#717171;stroke-width:0.6;stroke-dasharray:0.6, 1.8;stroke-dashoffset:0;stroke-opacity:1"
       d="m 15.902389,137.84699 142.114401,-0.0987"
       id="path2515"
       sodipodi:nodetypes="cc" />
    <circle
       style="fill:#201111;fill-opacity:1;stroke:none;stroke-width:1"
       id="path234"
       cx="58.396713"
       cy="137.79764"
       r="2.817205" />
    <circle
       style="fill:#201111;fill-opacity:1;stroke:none;stroke-width:1"
       id="path234-3"
       cx="87.430359"
       cy="106.06471"
       r="2.817205" />
    <circle
       style="fill:#201111;fill-opacity:1;stroke:none;stroke-width:1"
       id="path234-6"
       cx="51.288185"
       cy="121.72682"
       r="2.817205" />
    <circle
       style="fill:#201111;fill-opacity:1;stroke:none;stroke-width:1"
       id="path234-7"
       cx="57.940857"
       cy="106.06471"
       r="2.817205" />
    <circle
       style="fill:#201111;fill-opacity:1;stroke:none;stroke-width:1"
       id="path234-5"
       cx="68.178078"
       cy="121.63612"
       r="2.817205" />
    <circle
       style="fill:#201111;fill-opacity:1;stroke:none;stroke-width:1"
       id="path234-35"
       cx="91.107216"
       cy="137.79764"
       r="2.817205" />
    <circle
       style="fill:#201111;fill-opacity:1;stroke:none;stroke-width:1"
       id="path234-62"
       cx="74.751961"
       cy="137.79764"
       r="2.817205" />
    <circle
       style="fill:#201111;fill-opacity:1;stroke:none;stroke-width:1"
       id="path234-9"
       cx="42.041466"
       cy="137.79764"
       r="2.817205" />
    <path
       style="fill:#201111;fill-opacity:1;stroke:#000000;stroke-width:1.6;stroke-dasharray:none;stroke-opacity:1"
       d="m 15.902389,137.84699 96.345351,-0.0987"
       id="path1118"
       sodipodi:nodetypes="cc" />
    <path
       style="fill:#201111;fill-opacity:1;stroke:#000000;stroke-width:1.6;stroke-dasharray:none;stroke-opacity:1"
       d="m 65.950091,162.07074 51.172619,-0.0987"
       id="path1151"
       sodipodi:nodetypes="cc" />
    <path
       style="fill:#201111;fill-opacity:1;stroke:#000000;stroke-width:1.6;stroke-dasharray:none;stroke-opacity:1"
       d="m 58.567953,137.83993 7.807428,24.37822"
       id="path1879"
       sodipodi:nodetypes="cc" />
    <path
       style="fill:#201111;fill-opacity:1;stroke:#000000;stroke-width:1.6;stroke-dasharray:none;stroke-opacity:1"
       d="m 38.649125,121.88305 73.165445,0.0987"
       id="path1932"
       sodipodi:nodetypes="cc" />
    <path
       style="fill:#201111;fill-opacity:1;stroke:#000000;stroke-width:1.6;stroke-dasharray:none;stroke-opacity:1"
       d="M 25.708344,137.59142 39.397406,121.47766"
       id="path1934"
       sodipodi:nodetypes="cc" />
    <path
       style="fill:#201111;fill-opacity:1;stroke:#000000;stroke-width:1.6;stroke-dasharray:none;stroke-opacity:1"
       d="m 40.934916,106.01536 70.722324,0.0987"
       id="path1938" />
    <path
       style="fill:#201111;fill-opacity:1;stroke:#000000;stroke-width:1.6;stroke-dasharray:none;stroke-opacity:1"
       d="M 16.54592,137.85348 41.676907,105.77354"
       id="path1940"
       sodipodi:nodetypes="cc" />
    <path
       style="fill:#201111;fill-opacity:1;stroke:#000000;stroke-width:1.6;stroke-dasharray:1.6, 1.6;stroke-dashoffset:0;stroke-opacity:1"
       d="m 58.465755,138.71643 9.586003,-16.37528"
       id="path1995"
       sodipodi:nodetypes="cc" />
    <path
       style="fill:#201111;fill-opacity:1;stroke:#000000;stroke-width:1.6;stroke-dasharray:1.6, 1.6;stroke-dashoffset:0;stroke-opacity:1"
       d="m 57.867662,138.87836 11.865504,-32.0794"
       id="path1999"
       sodipodi:nodetypes="cc" />
    <circle
       style="fill:#201111;fill-opacity:1;stroke:none;stroke-width:1"
       id="circle2001"
       cx="70.352142"
       cy="106.06471"
       r="2.817205" />
    <path
       style="fill:#201111;fill-opacity:1;stroke:#000000;stroke-width:1.6;stroke-dasharray:1.6, 1.6;stroke-dashoffset:0;stroke-opacity:1"
       d="m 92.189926,138.35298 11.865504,-32.0794"
       id="path2003"
       sodipodi:nodetypes="cc" />
    <circle
       style="fill:#201111;fill-opacity:1;stroke:none;stroke-width:1"
       id="circle2005"
       cx="104.54601"
       cy="106.06471"
       r="2.817205" />
    <text
       xml:space="preserve"
       transform="matrix(0.26458333,0,0,0.26458333,1.7235286,-13.857156)"
       id="text2059"
       style="font-size:33.3333px;font-family:'Berenis ADF Pro';-inkscape-font-specification:'Berenis ADF Pro';white-space:pre;shape-inside:url(#rect2061);display:inline;fill:#201111;fill-opacity:1;stroke:#000000;stroke-width:6.04724;stroke-dasharray:6.04724, 6.04724;stroke-dashoffset:0;stroke-opacity:1"><tspan
         x="441.74023"
         y="411.19398"
         id="tspan3061"><tspan
           style="font-family:Carlito;-inkscape-font-specification:Carlito;stroke:none"
           id="tspan3059">Branche </tspan></tspan></text>
    <text
       xml:space="preserve"
       transform="matrix(0.26458333,0,0,0.26458333,1.7235286,-13.857156)"
       id="text2117"
       style="font-size:33.3333px;font-family:'Berenis ADF Pro';-inkscape-font-specification:'Berenis ADF Pro';white-space:pre;shape-inside:url(#rect2119);display:inline;fill:#201111;fill-opacity:1;stroke:#000000;stroke-width:6.04724;stroke-dasharray:6.04724, 6.04724;stroke-dashoffset:0;stroke-opacity:1"><tspan
         x="441.74023"
         y="411.19398"
         id="tspan3065"><tspan
           style="font-family:Carlito;-inkscape-font-specification:Carlito;stroke:none"
           id="tspan3063">Branche </tspan></tspan></text>
    <text
       xml:space="preserve"
       transform="matrix(0.26458333,0,0,0.26458333,18.208682,46.589762)"
       id="text2123"
       style="font-size:33.3333px;font-family:'Berenis ADF Pro';-inkscape-font-specification:'Berenis ADF Pro';white-space:pre;shape-inside:url(#rect2125);display:inline;fill:#717171;fill-opacity:1;stroke:#000000;stroke-width:6.04724;stroke-dasharray:6.04724, 6.04724;stroke-dashoffset:0;stroke-opacity:1"><tspan
         x="441.74023"
         y="411.19398"
         id="tspan3069"><tspan
           style="font-style:italic;font-family:Carlito;-inkscape-font-specification:Carlito;stroke:none"
           id="tspan3067">dev</tspan></tspan></text>
    <text
       xml:space="preserve"
       transform="matrix(0.26458333,0,0,0.26458333,1.7683135,0.06376554)"
       id="text2129"
       style="font-size:26.6667px;font-family:'Berenis ADF Pro';-inkscape-font-specification:'Berenis ADF Pro';white-space:pre;shape-inside:url(#rect2131);display:inline;fill:#201111;fill-opacity:1;stroke:#000000;stroke-width:6.04724;stroke-dasharray:6.04724, 6.04724;stroke-dashoffset:0;stroke-opacity:1"><tspan
         x="441.74023"
         y="405.36071"
         id="tspan3073"><tspan
           style="font-family:Carlito;-inkscape-font-specification:Carlito;stroke:none"
           id="tspan3071">MPI </tspan></tspan></text>
    <text
       xml:space="preserve"
       transform="matrix(0.26458333,0,0,0.26458333,2.0852627,17.189084)"
       id="text2135"
       style="font-size:26.6667px;font-family:'Berenis ADF Pro';-inkscape-font-specification:'Berenis ADF Pro';white-space:pre;shape-inside:url(#rect2137);display:inline;fill:#201111;fill-opacity:1;stroke:#000000;stroke-width:6.04724;stroke-dasharray:6.04724, 6.04724;stroke-dashoffset:0;stroke-opacity:1"><tspan
         x="441.74023"
         y="405.36071"
         id="tspan3077"><tspan
           style="font-family:Carlito;-inkscape-font-specification:Carlito;stroke:none"
           id="tspan3075">openmole </tspan></tspan></text>
    <path
       style="fill:#201111;fill-opacity:1;stroke:#000000;stroke-width:1.6;stroke-dasharray:none;stroke-opacity:1"
       d="m 50.327937,153.73054 30.38625,-0.0987"
       id="path2145"
       sodipodi:nodetypes="cc" />
    <path
       style="fill:#201111;fill-opacity:1;stroke:#000000;stroke-width:1.6;stroke-dasharray:none;stroke-opacity:1"
       d="M 80.11077,154.24671 90.811451,138.52216"
       id="path1934-1"
       sodipodi:nodetypes="cc" />
    <path
       style="fill:#201111;fill-opacity:1;stroke:#000000;stroke-width:1.6;stroke-dasharray:none;stroke-opacity:1"
       d="m 41.550368,137.95101 9.586003,16.37528"
       id="path1934-9"
       sodipodi:nodetypes="cc" />
    <text
       xml:space="preserve"
       transform="matrix(0.26458333,0,0,0.26458333,2.2265118,56.698483)"
       id="text2229"
       style="font-size:26.6667px;font-family:'Berenis ADF Pro';-inkscape-font-specification:'Berenis ADF Pro';white-space:pre;shape-inside:url(#rect2231);display:inline;fill:#201111;fill-opacity:1;stroke:#000000;stroke-width:6.04724;stroke-dasharray:6.04724, 6.04724;stroke-dashoffset:0;stroke-opacity:1"><tspan
         x="441.74023"
         y="405.36071"
         id="tspan3081"><tspan
           style="font-family:Carlito;-inkscape-font-specification:Carlito;stroke:none"
           id="tspan3079">tests</tspan></tspan></text>
    <text
       xml:space="preserve"
       transform="matrix(0.26458333,0,0,0.26458333,-31.461674,46.99259)"
       id="text2235"
       style="font-size:26.6667px;font-family:'Berenis ADF Pro';-inkscape-font-specification:'Berenis ADF Pro';white-space:pre;shape-inside:url(#rect2237);display:inline;fill:#201111;fill-opacity:1;stroke:#000000;stroke-width:6.04724;stroke-dasharray:6.04724, 6.04724;stroke-dashoffset:0;stroke-opacity:1"><tspan
         x="441.74023"
         y="405.36071"
         id="tspan3085"><tspan
           style="font-family:Carlito;-inkscape-font-specification:Carlito;stroke:none"
           id="tspan3083">school</tspan></tspan></text>
    <circle
       style="fill:#201111;fill-opacity:1;stroke:none;stroke-width:1"
       id="path234-3-4"
       cx="101.82305"
       cy="161.76022"
       r="2.817205" />
    <circle
       style="fill:#201111;fill-opacity:1;stroke:none;stroke-width:1"
       id="path234-3-7"
       cx="76.547699"
       cy="162.4213"
       r="2.817205" />
    <circle
       style="fill:#201111;fill-opacity:1;stroke:none;stroke-width:1"
       id="path234-3-8"
       cx="73.186172"
       cy="153.60881"
       r="2.817205" />
    <circle
       style="fill:#201111;fill-opacity:1;stroke:none;stroke-width:1"
       id="path234-3-45"
       cx="58.481071"
       cy="153.37852"
       r="2.817205" />
    <text
       xml:space="preserve"
       transform="matrix(0.26458333,0,0,0.26458333,18.380937,7.0617056)"
       id="text2307"
       style="font-size:33.3333px;font-family:'Berenis ADF Pro';-inkscape-font-specification:'Berenis ADF Pro';white-space:pre;shape-inside:url(#rect2309);display:inline;fill:#717171;fill-opacity:1;stroke:none;stroke-width:6.04724;stroke-dasharray:6.04724, 6.04724;stroke-dashoffset:0;stroke-opacity:1"><tspan
         x="441.74023"
         y="411.19398"
         id="tspan3089"><tspan
           style="font-style:italic;font-family:Carlito;-inkscape-font-specification:Carlito"
           id="tspan3087">stable</tspan></tspan></text>
    <text
       xml:space="preserve"
       transform="matrix(0.26458333,0,0,0.26458333,1.8372155,32.239704)"
       id="text2141"
       style="font-size:26.6667px;font-family:'Berenis ADF Pro';-inkscape-font-specification:'Berenis ADF Pro';white-space:pre;shape-inside:url(#rect2143);display:inline;fill:#201111;fill-opacity:1;stroke:#000000;stroke-width:6.04724;stroke-dasharray:6.04724, 6.04724;stroke-dashoffset:0;stroke-opacity:1"><tspan
         x="441.74023"
         y="405.36071"
         id="tspan3093"><tspan
           style="font-family:Carlito;-inkscape-font-specification:Carlito;stroke:none"
           id="tspan3091">main</tspan></tspan></text>
  </g>
</svg>
